<?xml version="1.0" encoding="utf-8"?>
<!-- Generator: Adobe Illustrator 17.0.0, SVG Export Plug-In . SVG Version: 6.00 Build 0)  -->
<!DOCTYPE svg PUBLIC "-//W3C//DTD SVG 1.1//EN" "http://www.w3.org/Graphics/SVG/1.1/DTD/svg11.dtd">
<svg version="1.1" id="レイヤー_1" xmlns="http://www.w3.org/2000/svg" xmlns:xlink="http://www.w3.org/1999/xlink" x="0px"
	 y="0px" width="144px" height="144px" viewBox="0 0 144 144" enable-background="new 0 0 144 144" xml:space="preserve">
<path fill="#FFFFFF" d="M111.417,63H79V30.583c0-4.446-3.499-8.083-7.5-8.083S64,26.138,64,30.583V63H30.583
	c-4.446,0-8.083,3.499-8.083,7.5s3.638,7.5,8.083,7.5H64v33.417c0,4.446,3.499,8.083,7.5,8.083s7.5-3.637,7.5-8.083V78h32.417
	c4.446,0,8.083-3.499,8.083-7.5S115.863,63,111.417,63z"/>
</svg>
